[
	{
		"name": "Arte",
		"description": "Categoria de deportes"
	},
	{
		"name": "Ciencias",
		"description": "Categoria de ciencia"
	},
	{
		"name": "Geografia",
		"description": "Categoria de Historia"
	},
	{
		"name": "Historia",
		"description": "Categoria de Religion"
	},
	{
		"name": "Lengua y Literatura",
		"description": "Categoria de Literatura"
	}
]