[
	{
		"question": "Pregunta Numero #1",
		"category": {
			"name": "Deportes"
		},
		"checked": true
	},
	{
		"question": "Pregunta Numero #2",
		"category": {
			"name": "Deportes"
		},
		"checked": true
	},
	{
		"question": "Pregunta Numero #3",
		"category": {
			"name": "Deportes"
		},
		"checked": true
	},
	{
		"question": "Pregunta Numero #4",
		"category": {
			"name": "Deportes"
		},
		"checked": true
	},
	{
		"question": "Pregunta Numero #5",
		"category": {
			"name": "Deportes"
		},
		"checked": true
	},
	{
		"question": "Pregunta Numero #6",
		"category": {
			"name": "Deportes"
		},
		"checked": true
	},
	{
		"question": "Pregunta Numero #7",
		"category": {
			"name": "Deportes"
		},
		"checked": true
	},
	{
		"question": "Pregunta Numero #8",
		"category": {
			"name": "Deportes"
		},
		"checked": true
	},
	{
		"question": "Pregunta Numero #9",
		"category": {
			"name": "Ciencia"
		},
		"checked": true
	},
	{
		"question": "Pregunta Numero #10",
		"category": {
			"name": "Ciencia"
		},
		"checked": true
	},
	{
		"question": "Pregunta Numero #11",
		"category": {
			"name": "Ciencia"
		},
		"checked": true
	},
	{
		"question": "Pregunta Numero #12",
		"category": {
			"name": "Ciencia"
		},
		"checked": true
	},
	{
		"question": "Pregunta Numero #13",
		"category": {
			"name": "Ciencia"
		},
		"checked": true
	},
	{
		"question": "Pregunta Numero #14",
		"category": {
			"name": "Ciencia"
		},
		"checked": true
	},
	{
		"question": "Pregunta Numero #15",
		"category": {
			"name": "Ciencia"
		},
		"checked": true
	},
	{
		"question": "Pregunta Numero #16",
		"category": {
			"name": "Ciencia"
		},
		"checked": true
	},
	{
		"question": "Pregunta Numero #17",
		"category": {
			"name": "Historia"
		},
		"checked": true
	},
	{
		"question": "Pregunta Numero #18",
		"category": {
			"name": "Historia"
		},
		"checked": true
	},
	{
		"question": "Pregunta Numero #19",
		"category": {
			"name": "Historia"
		},
		"checked": true
	},
	{
		"question": "Pregunta Numero #20",
		"category": {
			"name": "Historia"
		},
		"checked": true
	},
	{
		"question": "Pregunta Numero #21",
		"category": {
			"name": "Historia"
		},
		"checked": true
	},
	{
		"question": "Pregunta Numero #22",
		"category": {
			"name": "Historia"
		},
		"checked": true
	},
	{
		"question": "Pregunta Numero #23",
		"category": {
			"name": "Historia"
		},
		"checked": true
	},
	{
		"question": "Pregunta Numero #24",
		"category": {
			"name": "Historia"
		},
		"checked": true
	},
	{
		"question": "Pregunta Numero #25",
		"category": {
			"name": "Religion"
		},
		"checked": true
	},
	{
		"question": "Pregunta Numero #26",
		"category": {
			"name": "Religion"
		},
		"checked": true
	},
	{
		"question": "Pregunta Numero #27",
		"category": {
			"name": "Religion"
		},
		"checked": true
	},
	{
		"question": "Pregunta Numero #28",
		"category": {
			"name": "Religion"
		},
		"checked": true
	},
	{
		"question": "Pregunta Numero #29",
		"category": {
			"name": "Religion"
		},
		"checked": true
	},
	{
		"question": "Pregunta Numero #30",
		"category": {
			"name": "Religion"
		},
		"checked": true
	},
	{
		"question": "Pregunta Numero #31",
		"category": {
			"name": "Religion"
		},
		"checked": true
	},
	{
		"question": "Pregunta Numero #32",
		"category": {
			"name": "Religion"
		},
		"checked": true
	},
	{
		"question": "Pregunta Numero #33",
		"category": {
			"name": "Literatura"
		},
		"checked": true
	},
	{
		"question": "Pregunta Numero #34",
		"category": {
			"name": "Literatura"
		},
		"checked": true
	},
	{
		"question": "Pregunta Numero #35",
		"category": {
			"name": "Literatura"
		},
		"checked": true
	},
	{
		"question": "Pregunta Numero #36",
		"category": {
			"name": "Literatura"
		},
		"checked": true
	},
	{
		"question": "Pregunta Numero #37",
		"category": {
			"name": "Literatura"
		},
		"checked": true
	},
	{
		"question": "Pregunta Numero #38",
		"category": {
			"name": "Literatura"
		},
		"checked": true
	},
	{
		"question": "Pregunta Numero #39",
		"category": {
			"name": "Literatura"
		},
		"checked": true
	},
	{
		"question": "Pregunta Numero #40",
		"category": {
			"name": "Literatura"
		},
		"checked": true
	}
]